{
  "project_info": {
    "project_number": "749032189844",
    "firebase_url": "https://tmsapp-22e76.firebaseio.com",
    "project_id": "tmsapp-22e76",
    "storage_bucket": "tmsapp-22e76.appspot.com"
  },
  "client": [
    {
      "client_info": {
        "mobilesdk_app_id": "1:749032189844:android:662447d6cff066f7",
        "android_client_info": {
          "package_name": "com.standard_info.tmsapp"
        }
      },
      "oauth_client": [
        {
          "client_id": "749032189844-i7arfnc0cha1ptehh47bvu1te9ro89h7.apps.googleusercontent.com",
          "client_type": 1,
          "android_info": {
            "package_name": "com.standard_info.tmsapp",
            "certificate_hash": "c044ba65152db027d8286f9c399cc40478302ede"
          }
        },
        {
          "client_id": "749032189844-tfivohhe54jndm4deqig0tbcivimmjhv.apps.googleusercontent.com",
          "client_type": 3
        }
      ],
      "api_key": [
        {
          "current_key": "AIzaSyCUTrtkwilEeLZIUbDMZ5imHqacg4tPcKM"
        }
      ],
      "services": {
        "analytics_service": {
          "status": 1
        },
        "appinvite_service": {
          "status": 2,
          "other_platform_oauth_client": [
            {
              "client_id": "749032189844-tfivohhe54jndm4deqig0tbcivimmjhv.apps.googleusercontent.com",
              "client_type": 3
            }
          ]
        },
        "ads_service": {
          "status": 2
        }
      }
    }
  ],
  "configuration_version": "1"
}