{
  "type": "service_account",
  "project_id": "tmsapp-22e76",
  "private_key_id": "5feaf948aa813450f4d7e9da7a9728f72fe372a7",
  "private_key": "-----BEGIN PRIVATE KEY-----\nMIIEvgIBADANBgkqhkiG9w0BAQEFAASCBKgwggSkAgEAAoIBAQCIG6BFFzTOATiR\nqiwKPY6IuCi3sg5NHhSdwWAVf7FVxinZI7uXcC6gDs9ph+SGlPby7naXMakz3wYb\npifoqb/OCZjJ0EhARJd/h5nST3zLql2W226qTsz/1SfEL+VGk46I5/jId3nhodi5\nDAnuNC2wd/ytCRS86dqd745sE+a1s9N86mEUOEh8G+azPZD56NMovx6hzr7QkOea\nCVUajgw+laT4TTno2RGWCwmZhSzd7Rhw9FoUoV4H5Jc2ZdRsC6HWo7qZZqZWyDQg\nj13330swXObvdPoqPS6kTEq8KBGIT2E4aC7pezCdIMSMT8t12CgYwqZYEWpzs6eV\nqFZpQH3TAgMBAAECggEADdNIj1wRGA/VsC4p9QxVqxuRvz8N5tV0YKXg3a4v1Deh\nzpWrm3Fguw9mECEmnGkLQJfqYedAea1g0HQrP53mhsZAx9cpT6XoAaNDg7JhScrP\nYOB/ODty5VXAiVQYJPgeFVgC1FIWhk3LVtibNaAFOBSoDOeMPLhAZaSMwfuvhqtM\nlnlqISPB21Lvci5fL3w0Mta3OW3mo0tJZV59lqrkQORt/eHRtMbvqtq5rwAgDmNj\n7IO6FNH6BWbd0F9yWMkyGMvdopRtG4zODZ5Vi/lv2wCRqqRnuzXudO9akwbJqltK\n7zAz5eYcK3ZoVwvN4QPI60+dwRXhoy3euhLjfhYEsQKBgQC89xanKz0VUp8r9J06\ncxh5ajUQMqKAlrCydTMhyXmUjGBvmE0bv0ufeT+kSRI73oUHhzio+Hfw/UnJfd7p\nCWZuGkkNEEhfjJxEdmdj08yAYWtADihmPdV4cHX3u887+xtNTPvD5j9pDAU3YC3I\nZX5aqzCHV6RU46j+ESTzep/KKwKBgQC4ZEslhsUEDPYHHQD2lcIYe7Ta77nB98/M\nhN14YI8k/HCM2ZD/Gwet9SuDtHD6XHPId01gt2fOqoIReHz4X9sLbzag0/1BSp4C\n4FNPdl6Ofiun6QamoLLd+IuzUYNgy1l77IiQdvJTj+6HAIS7FObIp+M4x0t8C4Dq\n0VL8wZOO+QKBgGWrV9/XrsTTMFrZAONa27cvwp8Vb0NaUHWkAz/Rg/29zYEdY5dj\nRE/oT6qXuhzGK7MSORUIopfh35pug8nESf1BXT6PHTFzmPxo7FXUtfn48FiFhY0F\nBd8IOyBwRx7Riy37FpafQkzFr+TMdbWVjfdAlhqrt/oIh3szRDtQJbsDAoGBAKVo\notipCvdVQSakaAbL1O/tmRGFVxefW/NVhO7Ff+Nn6PcQ/Lc74im08zIUnfyZDuxX\nyTvniuGjp0ZQ1ZphMrgRLeocAOWfMBvYbCOuRaiBmlvn+CVlps7kdT2I89fS0xUN\n3Hvrl/pJ9Wl5l5fTaiu6H2UBsr81+pGq8Uz3wYzRAoGBAI1qmuHeiC8CRNQm788z\ntTq+SjjApMLeRtfu1wCDE2mAspiKOaevf59Xo5IXSXIgEsenczrkMNTebo8Ez16e\niLhu8++31LsWSbTeYaEAYkJOHkfkSW8kvMtsS8rXMrZ4nCQVgGMZaioPVnjudddz\nbBxHaHk9tyC5WObqMti6iwsI\n-----END PRIVATE KEY-----\n",
  "client_email": "firebase-adminsdk-6fqw0@tmsapp-22e76.iam.gserviceaccount.com",
  "client_id": "106970541572775099798",
  "auth_uri": "https://accounts.google.com/o/oauth2/auth",
  "token_uri": "https://oauth2.googleapis.com/token",
  "auth_provider_x509_cert_url": "https://www.googleapis.com/oauth2/v1/certs",
  "client_x509_cert_url": "https://www.googleapis.com/robot/v1/metadata/x509/firebase-adminsdk-6fqw0%40tmsapp-22e76.iam.gserviceaccount.com"
}
