<?xml version="1.0" encoding="utf-8"?>
<!-- Generator: Adobe Illustrator 24.0.1, SVG Export Plug-In . SVG Version: 6.00 Build 0)  -->
<svg version="1.1" id="圖層_1" xmlns="http://www.w3.org/2000/svg" xmlns:xlink="http://www.w3.org/1999/xlink" x="0px" y="0px"
	 viewBox="0 0 210 50" style="enable-background:new 0 0 210 50;" xml:space="preserve">
<style type="text/css">
	.st0{fill:#3E3A39;}
</style>
<g>
	<g>
		<g>
			<path class="st0" d="M76.3,12.5c0.6,0,1.1,0.4,1.5,1c0.7-0.3,1.5-0.7,2.5-1.1c0-1.1,0.1-1.7,0.1-1.9c0.1-1.2,0.3-2.1,0.5-2.7
				c0.2-0.6,0.5-0.9,1-0.9c0.4,0,0.7,0.2,1.1,0.5c0.5,0.5,0.7,0.9,0.7,1.3c0,0.4-0.1,1.2-0.3,2.4c0,0.2,0,0.4-0.1,0.6
				c0.1,0,0.2,0,0.2,0c0.5,0,0.9,0,1.3,0.1c0.4-0.2,0.8-0.3,1-0.3c0.4,0,0.7,0.2,1,0.5c0.4,0.3,0.6,0.8,0.6,1.3
				c-0.1,1.9-0.6,3.4-1.2,4.5c0.1,0.1,0.2,0.4,0.2,0.7c0,0.6-0.4,1.1-1.1,1.5c-0.8,0.5-1.8,1-3,1.5c-0.1,1-0.1,1.8-0.2,2.5
				c0.8-0.3,1.4-0.5,1.8-0.6c0.1,0,0.2-0.1,0.3-0.1c-0.3-0.7-0.5-1.2-0.5-1.4c0-0.2,0.1-0.4,0.2-0.6c0.1-0.1,0.2-0.2,0.5-0.2
				c0.5,0,1.1,0.4,1.8,1.2c0.6,0.9,0.9,1.9,0.9,2.9c0,0.3-0.1,0.6-0.4,0.8c-0.3,0.3-0.5,0.5-0.8,0.5c-0.2,0-0.4-0.1-0.6-0.2
				c-0.2-0.1-0.4-0.4-0.5-0.6c0-0.4-0.1-0.8-0.2-1.1c-1.4,1.6-3.6,2.9-6.6,3.8c-0.5,0.5-1,0.7-1.4,0.8c-0.2,0-0.5-0.2-0.7-0.5
				c-0.3-0.7-0.5-1.2-0.5-1.5c0-0.2,0.1-0.5,0.4-0.9c0.3-0.3,0.6-0.4,0.8-0.5c1-0.2,2-0.5,3.2-0.9c0-0.8,0-1.7,0-2.7
				c-0.5,0.1-0.9,0.2-1.4,0.3c-0.1,0.9-0.5,1.3-1.1,1.3c-0.5,0-1.1-1.3-1.7-4c-0.5-1.8-0.7-3.6-0.8-5.3
				C75.1,13.3,75.5,12.7,76.3,12.5z M78.3,20.2c0.6-0.3,1.2-0.5,1.8-0.7c0-1.1,0.1-2.3,0.1-3.6c-0.7,0.2-1.4,0.4-2.2,0.5
				C78,17.8,78.1,19.1,78.3,20.2z M82.9,14.7c-0.1,1.4-0.2,2.8-0.4,4.2c0.8-0.2,1.2-0.4,1.2-0.6c0.3-0.3,0.6-1,0.8-2.1
				c0.1-0.8,0.2-1.7,0.2-2.8C84.2,13.9,83.5,14.3,82.9,14.7z M99.1,9.9c1.5,0.2,2.3,0.7,2.3,1.5c0,0.8-0.5,1.4-1.4,1.5
				c-1.1,0.2-1.9,0.5-2.7,0.7c-0.6,0.2-1.1,0.3-1.6,0.5c0.2,0.2,0.3,0.3,0.5,0.5c0.5,0.5,0.7,1.1,0.7,1.8c0,0.9-0.5,2.7-1.4,5.5
				c-0.3,1.3-0.7,2.6-1,3.9c0.9,0,1.7-0.1,2.5-0.2c0.9,0,1.6-0.1,2.3-0.2c0.5-0.1,0.9-0.1,1.2-0.1c0.7,0,1.3,0.3,2,0.9
				c0.4,0.4,0.6,1,0.6,1.6c0,0.9-0.7,1.4-2.1,1.4c-0.5,0-1.1-0.1-1.7-0.2c-0.5-0.1-1-0.1-1.5-0.1c-2.1,0.2-4.4,0.3-6.6,0.6
				c-1.6,0.2-2.7,0.4-3.4,0.6c-0.8,0-1.3-0.2-1.6-0.6c-0.4-0.5-0.5-0.9-0.5-1.3c0.1-0.8,0.9-1.4,2.5-1.8c0.5-0.1,1.8-0.2,3.8-0.4
				c1-4.9,1.5-8.6,1.5-10.9c-0.5,0.2-1,0.3-1.5,0.3c-0.8,0-1.4-0.2-1.8-0.7c-0.5-0.5-0.7-1-0.7-1.6c0-0.9,0.6-1.5,1.8-1.8
				c0.6-0.1,1.4-0.2,2.3-0.4c0.9-0.1,1.9-0.3,3.1-0.6C97.8,10.1,98.7,9.9,99.1,9.9z"/>
			<path class="st0" d="M118.4,28.5c0-0.1-0.1-0.2-0.2-0.3c-0.6-0.5-0.9-0.9-0.9-1.1c0-0.2,0.1-0.4,0.2-0.5c0.1-0.1,0.2-0.2,0.4-0.2
				c0.6,0,1.2,0.2,1.9,0.7c0.6,0.6,0.9,1.2,0.9,1.8c0,0.3-0.1,0.5-0.3,0.7c-0.3,0.3-0.5,0.4-0.7,0.4c-0.1,0-0.3-0.1-0.5-0.2
				c-0.2-0.1-0.3-0.3-0.4-0.5c-0.1,0-0.1,0.1-0.2,0.1c-0.5,0.4-1.1,0.8-2,1.5c-0.6,0.5-1.3,0.8-1.9,1.2c-1.7,0.9-3,1.4-3.9,1.4
				c-0.8,0-1.4-0.6-1.9-1.8c0-0.3,0.2-0.6,0.5-0.7c1-0.1,2-0.3,2.9-0.5c-0.1-0.2-0.1-0.5-0.2-0.9c0-0.7-0.1-1.5-0.1-2.3
				c0-0.7,0-1.3,0-1.8c0-0.6,0.1-1.3,0.1-2.2c0.1-1.1,0.1-1.8,0.2-2.2c0.1-0.5,0.3-0.7,0.7-0.8c0.2,0,0.4,0.1,0.5,0.2
				c0.5-0.2,1-0.5,1.7-0.7c1.3-0.4,2.2-0.6,2.7-0.6c0.3,0,0.6,0.1,0.8,0.4c0.2,0.4,0.4,0.7,0.4,1.1c0,0.4-0.1,0.9-0.2,1.7
				c-0.2,1.2-0.4,2-0.6,2.4c-0.4,0.7-1.3,1.5-2.5,2.2c-0.5,0.3-1.1,0.6-1.7,0.8c0.1,0.8,0.2,1.4,0.2,1.8c0,0.2,0,0.3-0.1,0.4
				c0.8-0.3,1.6-0.5,2.3-0.8C117.4,28.8,118,28.6,118.4,28.5z M112,12.8c0.7,0,1,0.3,1.1,0.8v0.1c0.6-0.2,1.1-0.3,1.6-0.5
				c-0.6-0.3-1.2-1.1-2-2.2c-0.6-0.9-0.8-1.8-0.8-2.5c0.1-0.7,0.5-1,1.2-1c0.6,0.1,1.1,0.4,1.3,0.8c0.3,0.8,0.6,1.5,0.9,2.1
				c0.5,0.7,0.8,1.5,0.8,2.2c0,0.2,0,0.3,0,0.4c1.5-0.4,2.7-0.8,3.8-1c0.1,0,0.1,0,0.2,0c-0.3-0.3-0.7-0.6-1.2-1.1
				c-0.5-0.6-0.7-1.2-0.7-1.7c0-0.3,0.1-0.5,0.2-0.7c0.2-0.3,0.4-0.5,0.6-0.5c0.5,0,1,0.3,1.5,0.8c0.2,0.4,0.4,0.8,0.5,1.2
				c0.1,0.6,0.2,1.2,0.2,1.7c0.5-0.1,0.9-0.2,1.2-0.2c0.2-0.3,0.4-0.6,0.7-1c0.9-1.1,1.8-2.1,2.8-2.9c1.2-1.1,2.2-1.6,2.9-1.6
				c0.8,0,1.3,0.4,1.5,1.2c0,0.5-0.2,0.8-0.7,1.2c-0.5,0.4-0.9,0.6-1.4,0.8c-0.4,0.3-1,0.5-1.7,0.8c-1,0.4-1.7,0.8-2.2,1.2
				c1.1-0.1,2.1-0.2,3-0.3c0.8,0,1.5,0.1,2.3,0.4c0.3-0.2,0.6-0.4,0.8-0.4c1,0.1,1.5,0.6,1.5,1.6c0,1.1-0.4,2.1-1.2,3
				c-0.5,0.5-1,0.9-1.7,1.3c-0.7,0.3-1.4,0.4-2.1,0.4c-0.4,0-0.6-0.2-0.8-0.6c-0.1,0.1-0.3,0.1-0.5,0.1c-0.8,0.3-2.3,0.7-4.4,1.1
				c-1.2,0.2-2.4,0.5-3.6,0.7c-0.9,0.2-1.7,0.4-2.2,0.4c-0.2,0-0.4-0.1-0.5-0.3c-0.2-0.2-0.4-0.4-0.4-0.6c0-0.3,0.2-0.5,0.6-0.6
				c1.1-0.1,2-0.3,2.8-0.4c-0.3-0.3-0.5-0.7-0.8-1.2c-0.2-0.5-0.4-0.8-0.5-1c-1.3,0.4-2.3,0.8-3.1,1.4c0.1,0.4,0.2,0.8,0.3,1.2
				c0.3,0.9,0.5,1.5,0.5,1.8c0,0.5-0.2,0.8-0.6,0.8c-0.7,0-1.4-0.7-2.1-2.2c-0.5-1-0.7-1.9-0.7-2.6c0-0.6,0.1-1.1,0.3-1.5
				C111.4,13,111.8,12.8,112,12.8z M116.9,23.6c-0.1,0.1-0.3,0.2-0.5,0.3c-0.8,0.4-1.6,0.6-2.3,0.7V25c0,0.3,0,0.5,0,0.7
				c1-0.3,1.8-0.5,2.2-0.8C116.6,24.7,116.8,24.2,116.9,23.6z M114.3,21.9c0,0.3,0,0.7-0.1,1l0.1,0c0.8-0.5,1.5-0.7,1.9-0.7
				c0.2,0,0.4,0.1,0.6,0.2c0.1,0.1,0.2,0.1,0.2,0.2c0-0.7,0-1.3,0-1.9c-0.3,0-1,0.3-1.8,0.8C114.9,21.6,114.6,21.8,114.3,21.9z
				 M124.5,4.3c0.3,0,0.6,0.1,0.8,0.3c0.3,0.3,0.5,0.6,0.5,1c0,0.5-0.4,0.9-1.3,1c-1,0.2-2.4,0.4-4.2,0.5c-1.2,0.1-2.4,0.3-3.5,0.5
				c-0.2,0-0.3,0-0.3-0.1c0-0.1,0.1-0.3,0.4-0.6c1.4-0.8,2.7-1.3,3.9-1.8C122.3,4.6,123.5,4.3,124.5,4.3z M119.1,16.6
				c0.5-0.1,1-0.3,1.5-0.4c0.1,0,0.2,0,0.4-0.1c0,0,0-0.1,0-0.1c0-0.2,0.2-0.6,0.5-1.2c0.3-0.5,0.5-0.9,0.7-1.4
				c-1.1,0.2-2.1,0.4-3,0.6c0.2,0.3,0.3,0.6,0.3,1C119.3,15.7,119.2,16.3,119.1,16.6L119.1,16.6z M127.4,17.3c1,0.1,1.7,0.5,1.9,1
				c0.2,0.3,0.3,0.8,0.4,1.6c1.2-0.2,2.2-0.4,3-0.5c0.5,0,0.9,0.1,1.4,0.3c0.3,0.2,0.5,0.4,0.5,0.7c0,0.7-0.4,1.2-1.2,1.4
				c-1.3,0.3-2.4,0.5-3.5,0.6c0,0.3,0,0.5,0.1,0.7c0.1,0.5,0.1,1.2,0.1,2.2c0,0.8,0,1.7,0,2.6c0,1.6-0.2,2.8-0.7,3.5
				c-0.3,0.7-1,1.1-2,1.2c-0.3,0.2-0.7,0.5-1,1c-0.3,0.3-0.7,0.5-1,0.5c-0.7,0-1.2-0.5-1.4-1.4c0-0.5-0.5-0.9-1.4-1.3
				c-0.3-0.3-0.5-0.5-0.6-0.7c0-0.1,0.1-0.2,0.2-0.2c0.4,0,0.8,0.1,1.2,0.1c0.3,0,0.7,0,1,0c1.4-0.2,2.1-1.2,2.1-3.2
				c0-1,0-2.1,0-3.3v-1.1c-1,0.2-2,0.5-3.1,0.8c-0.9,0.5-1.7,0.7-2.3,0.7c-0.4,0-0.7-0.2-1-0.7c-0.3-0.6-0.5-1.1-0.5-1.3
				c0-0.4,0.4-0.7,1.1-0.9c1.9-0.2,3.7-0.5,5.5-1c0.1,0,0.1,0,0.2,0v0c0-0.6-0.1-1.1-0.1-1.6c0-0.2-0.1-0.5-0.3-0.9
				C126.4,17.5,126.8,17.3,127.4,17.3z M121.3,25.1c2.2,0.2,3.3,0.8,3.3,1.7c0,0.7-0.3,1-0.9,1c-0.9,0-1.7-0.2-2.4-0.6
				c-0.8-0.6-1.1-1.1-1.1-1.5C120.2,25.4,120.6,25.1,121.3,25.1z M125.5,12.8c-0.1,0.2-0.2,0.4-0.3,0.5c-0.2,0.3-0.5,0.5-0.7,0.6
				c-0.3,0.2-0.6,0.4-1,0.6c-0.6,0.3-1,0.6-1.3,0.9c-0.1,0.1-0.2,0.2-0.2,0.4c0.5-0.2,0.9-0.3,1.3-0.4c1.3-0.5,2.2-0.7,2.6-0.8
				c0.5,0.1,0.8,0.3,0.8,0.6c0.6-0.2,1.1-0.5,1.5-1c0.8-0.6,1.2-1.5,1.2-2.4c-0.9,0.5-1.8,0.7-2.4,0.7
				C126.4,12.7,125.9,12.8,125.5,12.8z"/>
			<path class="st0" d="M149.4,10.5c0.3,0,0.5,0.2,0.7,0.5c0.3,0.3,0.5,0.7,0.5,1c0,0.4-0.2,0.8-0.6,1.3c-0.3,0.6-0.8,1.4-1.5,2.5
				c-0.9,1.2-1.6,2.4-2.3,3.5c0.5-0.1,1.1-0.4,1.6-0.8c0.5-0.4,0.9-0.6,1.4-0.6c0.7,0,1.1,0.6,1.1,1.7c0,1.4-0.1,3.1-0.5,5.2
				c0,0.4-0.1,0.7-0.2,1.1c1.2,0.7,2.3,1.3,3.5,1.8c0.8,0.3,1.7,0.6,2.5,0.9c0-0.3-0.1-0.5-0.1-0.9c0-0.6,0-1.1,0-1.6h0
				c-0.8,0.3-1.6,0.4-2.5,0.4c-0.6,0-1-0.1-1.4-0.4c-0.4-0.3-0.5-0.6-0.5-0.8c0-0.4,0.3-0.7,0.8-0.9c1.1-0.3,2.2-0.6,3.5-1
				c0,0,0.1,0,0.1,0c0-0.6,0-1.1,0-1.6c-0.8,0.2-1.4,0.4-1.9,0.4c-0.5,0-0.8-0.1-1-0.3c-0.2-0.1-0.3-0.4-0.3-0.8
				c0-0.3,0.1-0.5,0.2-0.7c0.2-0.3,0.5-0.4,0.6-0.5c0.3-0.1,0.9-0.2,1.8-0.5c0.2,0,0.4-0.1,0.5-0.2c0-0.4,0-0.8,0-1.3
				c-1,0.3-1.6,0.5-2,0.5c-0.3,0-0.6-0.1-0.8-0.4c-0.3-0.4-0.5-0.7-0.5-1c0.1-0.3,0.3-0.6,0.6-0.6c0.3,0,0.5-0.1,0.7-0.1
				c0.4-0.1,1-0.3,1.9-0.5c0-0.6,0-1.1,0-1.6c-0.3,0.1-0.6,0.2-0.9,0.3c-1.1,0.4-1.9,0.5-2.4,0.5c-0.4,0-0.7-0.1-0.9-0.4
				c-0.4-0.3-0.5-0.7-0.5-1.1c0-0.5,0.3-0.9,0.9-1c1.3-0.2,2.4-0.4,3.3-0.6c0.2-0.1,0.4-0.1,0.6-0.2v-1c-0.5,0.1-1,0.2-1.4,0.2
				c-0.5,0-1-0.2-1.5-0.7c-0.3-0.3-0.5-0.7-0.5-1.2c0-0.2,0.1-0.5,0.3-0.7c0.3-0.2,0.6-0.3,1-0.4c0.7-0.3,1.4-0.5,2.1-0.6V6.6
				c0-0.7,0.2-1.3,0.5-1.7c0.4-0.4,0.9-0.5,1.4-0.5c0.4,0.1,0.6,0.3,0.8,0.5c0.3,0.5,0.5,1,0.5,1.5c0,0.2,0,0.3,0,0.5h0.4
				c0.7,0.1,1.3,0.2,1.9,0.3c0-0.2,0.2-0.3,0.4-0.4c0.2-0.1,0.4-0.2,0.5-0.2c0.2,0,0.4,0.2,0.7,0.6c0.3,0.3,0.4,0.9,0.4,1.9v0.1
				c0.3-0.2,0.6-0.3,0.8-0.3c0.8,0.1,1.3,0.5,1.3,1.1c0,0.5-0.1,0.8-0.4,1c-0.2,0.3-0.6,0.5-1.2,0.6c-0.3,0.2-0.7,0.3-1.1,0.5
				c-0.1,0.3-0.2,0.5-0.3,0.7c-0.1,0.3-0.2,0.5-0.3,0.8c0.1,0,0.3,0.1,0.4,0.2c0.3,0.3,0.5,0.5,0.5,0.7c0,0.5-0.3,0.9-0.9,1
				c-0.9,0.3-2.1,0.8-3.6,1.3c0,0.5,0,1,0,1.4c1.1-0.4,1.8-0.6,2.2-0.6c1,0,1.5,0.4,1.5,1.1c0,0.6-0.4,1-1.1,1.2
				c-0.7,0.3-1.4,0.6-2.1,0.7c-0.3,0.1-0.5,0.2-0.7,0.2c0,0.6,0,1.2,0,1.7c0.4-0.1,0.9-0.3,1.3-0.4c0.7-0.2,1.4-0.4,2-0.5
				c0.6-0.1,1.1-0.2,1.5-0.4c0.5,0,1,0.1,1.5,0.4c0.4,0.3,0.6,0.6,0.6,1.1c0,0.8-0.4,1.2-1.2,1.4c-1.5,0.3-2.8,0.5-3.8,0.7
				c-0.6,0.2-1.2,0.3-1.8,0.5c0,0.5,0,1,0,1.4c0,0.9-0.2,1.7-0.5,2.3c0,0.1-0.1,0.1-0.1,0.1c0.4,0.1,0.7,0.2,1.1,0.3
				c3.9,0.8,6.7,1.4,8.6,1.7c0.6,0.1,1.1,0.3,1.5,0.5c0.2,0.1,0.4,0.2,0.5,0.3c0.3,0.2,0.5,0.3,0.5,0.4c-0.1,0.2-0.2,0.3-0.5,0.4
				c-0.5,0-1,0.1-1.7,0.2c-0.5,0.1-0.8,0.3-1.1,0.6c-0.3,0.2-0.6,0.3-1,0.4c-0.5,0.1-0.9,0.2-1.4,0.2c-1.2,0-2.7-0.2-4.4-0.7
				c-1.4-0.3-2.8-0.7-4.2-1.3c-1.8-0.7-3.7-1.7-5.6-3.2c-0.4-0.3-0.8-0.6-1.1-0.8c0,0.1-0.1,0.2-0.1,0.3c-0.8,1.3-1.8,2.3-2.9,2.9
				c-0.6,0.4-1.3,0.6-2,0.7c-1,0.1-2,0.2-2.9,0.3c-0.2,0-0.3,0-0.5-0.1c0.1-0.3,0.3-0.6,0.6-0.8c0.2-0.2,0.6-0.3,1.1-0.5
				c0.8-0.2,1.6-0.5,2.5-1.1c0.9-0.7,1.7-1.4,2.2-2.2c0.1-0.2,0.2-0.3,0.4-0.5l-0.1,0c-0.6-0.2-1.3-0.5-1.8-0.6
				c-0.7-0.1-1.5-0.2-2.3-0.3c-0.8-0.1-1.3-0.6-1.5-1.6c0-0.4,0.2-0.8,0.5-1c0.5-0.2,1-0.3,1.5-0.3c1.4,0.1,2.9,0.6,4.4,1.5
				c0.2-1,0.3-2,0.3-3v-1.7c0-0.2-0.4-0.4-1.2-0.4c-0.4,0-0.7,0.2-1,0.5c-0.5,0.7-0.9,1.1-1.3,1.1c-0.3,0-0.5-0.2-0.5-0.6
				c0-0.2,0.5-1.6,1.6-4c0.8-1.7,1.4-3,1.8-4.1c-0.6,0.3-1.5,0.7-2.7,1.4c-0.9,0.6-1.6,0.9-2.2,0.9c-0.6,0-0.9-0.4-0.9-1.1
				c0-0.6,0.3-1,0.8-1.1c1.1-0.1,2.5-0.5,4-1c0.7-0.2,1.4-0.5,1.9-0.7C148.9,10.6,149.2,10.5,149.4,10.5z M158.4,13.3
				c0,0.6,0,1.1-0.1,1.5c0.4-0.1,0.7-0.2,1-0.4c0-0.3,0.2-0.8,0.4-1.5c-0.4,0.1-0.8,0.2-1.2,0.4C158.5,13.3,158.5,13.3,158.4,13.3z
				 M158.5,9.3c0,0.4,0,0.8,0,1.3v0.2c0.8-0.2,1.5-0.5,2.2-0.8c0.1-0.3,0.1-0.6,0.1-0.8c0-0.4,0-0.5-0.1-0.5
				C160.3,8.6,159.6,8.9,158.5,9.3z"/>
			<path class="st0" d="M183.7,8.9c0.3,0,0.5,0.1,0.5,0.4v0.9c0,0.6-0.2,1-0.6,1.2c-0.5,0.5-1.3,1.1-2.5,1.7c-0.8,0.5-1.7,1-2.7,1.4
				c-0.5,0.3-0.9,0.6-1.4,1c-0.5,0.5-1,0.7-1.4,0.7c-0.4,0-0.8-0.2-1.2-0.6c-0.2-0.3-0.4-0.5-0.7-0.8c-0.3-0.4-0.5-0.8-0.5-1
				c0-0.2,0.2-0.5,0.6-0.8c0.6-0.3,1.3-0.7,2.1-1c0.9-0.4,1.8-0.7,2.7-1l0.1,0c0.1-0.4,0.2-0.8,0.2-1.3c0-0.4-0.3-0.8-0.8-1.2
				c-0.5-0.5-0.8-1-0.9-1.5c0-0.5,0.3-0.8,0.7-1c1,0,1.9,0.3,2.5,0.8c1,0.8,1.5,1.6,1.5,2.4c0,0.3,0,0.5-0.1,0.7
				C182.7,9.4,183.3,9.1,183.7,8.9z M175.5,25.7c0.2,0,0.5,0.1,0.8,0.2c0.1,0,0.2,0.1,0.3,0.2c0.6-0.2,1.4-0.5,2.1-0.9
				c1.8-0.8,2.9-1.2,3.3-1.2c0.3,0,0.7,0.3,1.3,0.7c0.5,0.5,0.8,0.8,0.8,1c0,0.5-0.1,0.8-0.2,1.1c-0.2,0.6-0.3,1.2-0.5,1.7
				c0.3,0.2,0.4,0.4,0.4,0.6c0,0.4-0.2,0.7-0.6,0.8c-0.7,0.3-1.3,0.6-1.8,0.9c-0.5,0.3-0.8,0.6-1.1,0.9c0,0.1,0,0.2,0,0.3
				c0,0.7-0.2,1.1-0.5,1.1c-0.5,0-1-0.2-1.4-0.6c-0.5-0.4-1.3-1.2-2.3-2.4c-0.9-1.3-1.4-2.4-1.5-3.2
				C174.5,26.2,174.8,25.8,175.5,25.7z M181.6,14.9c0.2,0,0.3,0.1,0.4,0.3c0.2,0.3,0.3,0.5,0.3,0.8c0,0.8-0.3,1.5-1,2
				c-0.4,0.4-0.9,0.7-1.5,1c-0.5,0.2-1,0.3-1.5,0.3c-0.5,0-0.8-0.1-1.1-0.4c-0.4-0.3-0.6-0.6-0.6-0.9c0-0.3,0.2-0.6,0.4-0.9
				c0.8-0.5,1.7-0.9,2.7-1.5C180.7,15.2,181.4,14.9,181.6,14.9z M181.3,19.7c0.2,0,0.4,0.1,0.5,0.4c0.1,0.1,0.2,0.3,0.2,0.5
				c0,0.3-0.1,0.5-0.3,0.8c-0.1,0.2-0.3,0.5-0.7,0.9c-0.5,0.6-1,1-1.5,1.2c-0.4,0.3-0.8,0.4-1.3,0.4c-0.4,0-0.7-0.2-0.9-0.4
				c-0.4-0.3-0.5-0.6-0.5-0.9c0-0.3,0.4-0.7,1-1.2c0.4-0.3,0.8-0.6,1.3-0.9c0.4-0.2,0.7-0.4,1.1-0.6C180.6,19.8,181,19.7,181.3,19.7
				z M179.2,29.7c0.9-0.4,1.4-0.8,1.6-1.2c0.1-0.2,0.2-0.5,0.3-0.9c0.1-0.4,0.1-0.7,0.1-1c0-0.2-0.1-0.3-0.3-0.4
				c-0.7,0.3-1.4,0.7-2,1.2c-0.2,0.2-0.5,0.3-0.7,0.5c0.3,0.5,0.6,1,0.9,1.5C179.2,29.5,179.2,29.6,179.2,29.7z M193,17.3
				c0.6-0.6,1.1-1,1.7-1c0.5,0.1,1,0.4,1.3,0.8c0.2,0.4,0.4,0.8,0.4,1.3c0,1.1-0.2,2.3-0.5,3.7c-0.1,1.9-0.5,3.4-1.2,4.4
				c0.9,0.6,2.1,1.3,3.7,2.2c1.4,0.6,2.7,1.3,3.8,2c0.7,0.5,1.1,0.8,1.1,0.9c-0.1,0.1-0.2,0.2-0.5,0.2c-0.3,0-0.6-0.1-0.9-0.1
				c-0.3,0-0.7,0-1.1,0c-0.5,0.2-0.8,0.3-1,0.5c-0.4,0.1-0.8,0.2-1.3,0.2c-0.9,0-2-0.3-3.4-1c-1.1-0.5-2.2-1.2-3.4-2.1
				c-0.5,0.3-1,0.5-1.5,0.7c-1.4,0.7-3.1,1.2-4.9,1.4c-0.8,0-1.5,0.1-2.2,0.3c-0.2,0-0.2-0.1-0.3-0.2c0.3-0.6,0.8-1,1.3-1.3
				c0.7-0.3,1.4-0.6,2.1-0.8c1.3-0.4,2.4-1,3.4-1.7c-0.7-0.7-1.4-1.4-2.1-2.3c-1-1.5-2.1-2.5-3.3-2.7c-0.6-0.1-1.1-0.4-1.3-0.9
				c0-0.5,0.3-1,0.7-1.5c0.3-0.4,0.7-0.5,1.1-0.5c0.3,0,0.8,0.2,1.4,0.6c0.1-0.2,0.3-0.4,0.5-0.6c1-0.6,2.3-1.2,3.7-1.8
				C191.5,17.5,192.3,17.3,193,17.3z M187.7,6.3c0.2,0,0.5,0.1,0.8,0.4c0.3,0.2,0.5,0.5,0.5,0.7c0.5-0.1,1-0.3,1.7-0.6
				c0.7-0.2,1.3-0.4,1.8-0.6c0.5-0.1,0.8-0.2,1-0.4c0.2-0.1,0.4-0.3,0.7-0.6c0.2-0.1,0.4-0.2,0.6-0.2c0.4,0,0.9,0.2,1.4,0.5
				c0.6,0.6,0.9,1.1,0.9,1.5c0,0.4-0.2,0.9-0.5,1.4c-0.3,0.5-0.7,1.1-1.4,1.8c-0.5,1.1-0.8,1.9-0.8,2.4c1,0,1.6-0.2,1.9-0.7
				c0.4-0.4,0.8-0.6,1.3-0.6c0.3,0,0.5,0.1,0.7,0.4c0.4,0.3,0.6,0.7,0.6,1c0,0.5-0.7,1-2,1.6c-1.6,0.9-2.9,1.3-3.9,1.3
				c-0.5,0-0.9-0.1-1.2-0.4c-0.3-0.3-0.4-0.7-0.5-1.2c0-0.2,0.2-1,0.7-2.2c0.4-1.2,0.6-2.1,0.6-2.5c0-0.5-0.1-0.7-0.4-0.7
				c-0.7,0-1.5,0.4-2.5,1.2c-0.4,0.5-0.8,0.9-1.1,1.3c0,0.5-0.1,0.9-0.1,1.3c0,0.7-0.1,1.8-0.3,3.4c0,0.6-0.3,1.3-0.8,2
				c-0.5,0.6-0.9,0.9-1.4,0.9s-0.6-0.4-0.6-1.2c0-1.6-0.1-4.1-0.2-7.4c0.1-1,0.3-1.8,0.6-2.5C186.6,6.7,187.2,6.3,187.7,6.3z
				 M188.5,22c0.1,0.1,0.1,0.1,0.2,0.2c1.1,0.9,2.3,1.8,3.4,2.6c0.7-1.2,1.1-3.2,1.1-6.2c-0.8,0.3-1.7,0.9-2.7,1.7
				C189.7,21.2,189.1,21.7,188.5,22z"/>
		</g>
		<g>
			<path class="st0" d="M81.5,45.5C81.5,45.5,81.5,45.5,81.5,45.5c-0.1,0.1-0.1,0.1-0.1,0.1c-0.1,0-0.1,0-0.2,0c-0.1,0-0.2,0-0.3,0
				c-0.1,0-0.2,0-0.3,0c-0.1,0-0.2,0-0.2,0c0,0-0.1,0-0.1-0.1c0,0,0,0,0-0.1v-2.3h-2.4v2.3c0,0,0,0.1,0,0.1c0,0-0.1,0-0.1,0.1
				c-0.1,0-0.1,0-0.2,0c-0.1,0-0.2,0-0.3,0c-0.1,0-0.2,0-0.3,0c-0.1,0-0.2,0-0.2,0c-0.1,0-0.1,0-0.1-0.1c0,0,0,0,0-0.1V40
				c0,0,0-0.1,0-0.1c0,0,0.1,0,0.1-0.1c0.1,0,0.1,0,0.2,0c0.1,0,0.2,0,0.3,0c0.1,0,0.2,0,0.3,0c0.1,0,0.2,0,0.2,0
				c0.1,0,0.1,0,0.1,0.1c0,0,0,0,0,0.1v2.1h2.4V40c0,0,0-0.1,0-0.1c0,0,0.1,0,0.1-0.1c0,0,0.1,0,0.2,0c0.1,0,0.2,0,0.3,0
				c0.1,0,0.2,0,0.3,0c0.1,0,0.2,0,0.2,0c0.1,0,0.1,0,0.1,0.1c0,0,0,0,0,0.1V45.5z"/>
			<path class="st0" d="M88.8,42.7c0,0.5-0.1,0.9-0.2,1.3c-0.1,0.4-0.3,0.7-0.6,1c-0.3,0.3-0.6,0.5-1,0.6c-0.4,0.1-0.8,0.2-1.4,0.2
				c-0.5,0-1-0.1-1.3-0.2c-0.4-0.1-0.7-0.3-0.9-0.5c-0.3-0.2-0.4-0.5-0.6-0.9c-0.1-0.4-0.2-0.8-0.2-1.3c0-0.5,0.1-0.9,0.2-1.3
				c0.1-0.4,0.3-0.7,0.6-1c0.3-0.3,0.6-0.5,1-0.6c0.4-0.1,0.8-0.2,1.4-0.2c0.5,0,0.9,0.1,1.3,0.2c0.4,0.1,0.7,0.3,1,0.5
				c0.3,0.2,0.4,0.5,0.6,0.9C88.8,41.7,88.8,42.2,88.8,42.7z M87.4,42.7c0-0.3,0-0.6-0.1-0.8c-0.1-0.2-0.1-0.5-0.3-0.6
				c-0.1-0.2-0.3-0.3-0.5-0.4c-0.2-0.1-0.5-0.1-0.8-0.1c-0.3,0-0.6,0.1-0.8,0.2c-0.2,0.1-0.4,0.3-0.5,0.4c-0.1,0.2-0.2,0.4-0.3,0.6
				c-0.1,0.2-0.1,0.5-0.1,0.8c0,0.3,0,0.6,0.1,0.8c0.1,0.3,0.1,0.5,0.3,0.6c0.1,0.2,0.3,0.3,0.5,0.4c0.2,0.1,0.5,0.1,0.8,0.1
				s0.6-0.1,0.8-0.2c0.2-0.1,0.4-0.3,0.5-0.4c0.1-0.2,0.2-0.4,0.3-0.6C87.4,43.3,87.4,43,87.4,42.7z"/>
			<path class="st0" d="M97.6,45.5C97.6,45.5,97.6,45.5,97.6,45.5c0,0.1-0.1,0.1-0.1,0.1c0,0-0.1,0-0.2,0c-0.1,0-0.2,0-0.3,0
				c-0.1,0-0.2,0-0.3,0c-0.1,0-0.1,0-0.2,0c0,0-0.1,0-0.1-0.1c0,0,0,0,0-0.1v-4.7h0l-1.9,4.7c0,0,0,0.1-0.1,0.1c0,0-0.1,0-0.1,0.1
				c-0.1,0-0.1,0-0.2,0c-0.1,0-0.2,0-0.3,0c-0.1,0-0.2,0-0.3,0c-0.1,0-0.1,0-0.2,0c-0.1,0-0.1,0-0.1-0.1c0,0-0.1-0.1-0.1-0.1
				l-1.8-4.7h0v4.7c0,0,0,0.1,0,0.1c0,0-0.1,0-0.1,0.1c-0.1,0-0.1,0-0.2,0c-0.1,0-0.2,0-0.3,0c-0.1,0-0.2,0-0.3,0
				c-0.1,0-0.1,0-0.2,0c0,0-0.1,0-0.1-0.1c0,0,0,0,0-0.1v-5.1c0-0.2,0-0.3,0.1-0.3c0.1-0.1,0.2-0.1,0.4-0.1h0.9c0.2,0,0.3,0,0.4,0
				c0.1,0,0.2,0.1,0.3,0.1c0.1,0.1,0.1,0.1,0.2,0.2c0.1,0.1,0.1,0.2,0.1,0.3l1.4,3.4h0l1.5-3.4c0-0.1,0.1-0.2,0.1-0.3
				c0.1-0.1,0.1-0.2,0.2-0.2c0.1-0.1,0.2-0.1,0.2-0.1c0.1,0,0.2,0,0.3,0H97c0.1,0,0.2,0,0.2,0c0.1,0,0.1,0.1,0.2,0.1
				c0,0,0.1,0.1,0.1,0.1c0,0.1,0,0.1,0,0.2V45.5z"/>
			<path class="st0" d="M102.9,45.2c0,0.1,0,0.2,0,0.2c0,0.1,0,0.1,0,0.1c0,0,0,0.1-0.1,0.1c0,0-0.1,0-0.1,0h-3.3
				c-0.1,0-0.2,0-0.3-0.1C99,45.5,99,45.4,99,45.3v-5c0-0.1,0-0.2,0.1-0.3c0.1-0.1,0.2-0.1,0.3-0.1h3.3c0,0,0.1,0,0.1,0
				c0,0,0,0,0.1,0.1c0,0,0,0.1,0,0.1s0,0.1,0,0.2c0,0.1,0,0.2,0,0.2c0,0.1,0,0.1,0,0.1c0,0,0,0.1-0.1,0.1c0,0-0.1,0-0.1,0h-2.3v1.4
				h2c0,0,0.1,0,0.1,0c0,0,0,0,0.1,0.1c0,0,0,0.1,0,0.1c0,0.1,0,0.1,0,0.2c0,0.1,0,0.2,0,0.2c0,0.1,0,0.1,0,0.1c0,0,0,0.1-0.1,0.1
				c0,0-0.1,0-0.1,0h-2v1.6h2.4c0,0,0.1,0,0.1,0c0,0,0,0,0.1,0.1c0,0,0,0.1,0,0.1C102.9,45,102.9,45.1,102.9,45.2z"/>
			<path class="st0" d="M110.7,44c0,0.3,0,0.5-0.1,0.7c-0.1,0.2-0.2,0.4-0.3,0.5c-0.1,0.1-0.3,0.3-0.5,0.3c-0.2,0.1-0.5,0.1-0.8,0.1
				c-0.1,0-0.2,0-0.3,0c-0.1,0-0.2,0-0.3-0.1c-0.1,0-0.2,0-0.2-0.1c-0.1,0-0.1,0-0.1-0.1c0,0,0,0-0.1-0.1c0,0,0,0,0-0.1
				c0,0,0-0.1,0-0.1c0-0.1,0-0.1,0-0.2c0-0.1,0-0.2,0-0.3c0-0.1,0-0.1,0-0.2c0,0,0-0.1,0.1-0.1c0,0,0,0,0.1,0c0,0,0.1,0,0.1,0
				c0,0,0.1,0,0.1,0.1c0.1,0,0.1,0,0.2,0.1c0.1,0,0.1,0,0.2,0c0.1,0,0.2,0,0.2,0c0.1,0,0.1-0.1,0.2-0.1c0-0.1,0.1-0.1,0.1-0.2
				c0-0.1,0-0.2,0-0.4v-4c0,0,0-0.1,0-0.1c0,0,0.1,0,0.1-0.1c0,0,0.1,0,0.2,0c0.1,0,0.2,0,0.3,0c0.1,0,0.2,0,0.3,0
				c0.1,0,0.2,0,0.2,0c0.1,0,0.1,0,0.1,0.1c0,0,0,0,0,0.1V44z"/>
			<path class="st0" d="M117.3,45.2c0,0.1,0.1,0.2,0.1,0.3c0,0.1,0,0.1,0,0.1c0,0-0.1,0-0.2,0.1c-0.1,0-0.2,0-0.4,0
				c-0.2,0-0.3,0-0.4,0c-0.1,0-0.2,0-0.2,0c-0.1,0-0.1,0-0.1-0.1c0,0,0-0.1-0.1-0.1l-0.4-1.2h-2.5l-0.4,1.1c0,0,0,0.1-0.1,0.1
				c0,0-0.1,0-0.1,0.1c0,0-0.1,0-0.2,0c-0.1,0-0.2,0-0.4,0c-0.2,0-0.3,0-0.4,0c-0.1,0-0.1,0-0.2-0.1c0,0,0-0.1,0-0.1
				c0-0.1,0-0.1,0.1-0.3l2-5.1c0-0.1,0-0.1,0.1-0.1c0,0,0.1-0.1,0.1-0.1c0.1,0,0.1,0,0.2,0c0.1,0,0.2,0,0.4,0c0.2,0,0.4,0,0.5,0
				c0.1,0,0.2,0,0.3,0c0.1,0,0.1,0,0.1,0.1c0,0,0.1,0.1,0.1,0.1L117.3,45.2z M114.3,41L114.3,41l-0.9,2.5h1.9L114.3,41z"/>
			<path class="st0" d="M122.2,45.2c0,0.1,0,0.2,0,0.2c0,0.1,0,0.1,0,0.1c0,0,0,0.1-0.1,0.1c0,0-0.1,0-0.1,0h-3.9
				c-0.1,0-0.2,0-0.3-0.1c-0.1-0.1-0.1-0.2-0.1-0.3V45c0-0.1,0-0.1,0-0.2c0,0,0-0.1,0-0.1c0-0.1,0-0.1,0.1-0.2
				c0-0.1,0.1-0.1,0.1-0.2l2.5-3.6h-2.5c0,0-0.1,0-0.1,0c0,0-0.1,0-0.1-0.1c0,0,0-0.1,0-0.1c0-0.1,0-0.1,0-0.2c0-0.1,0-0.2,0-0.2
				c0-0.1,0-0.1,0-0.1c0,0,0-0.1,0.1-0.1c0,0,0.1,0,0.1,0h3.6c0.1,0,0.2,0,0.3,0.1c0.1,0.1,0.1,0.1,0.1,0.3v0.2c0,0.1,0,0.1,0,0.2
				c0,0.1,0,0.1,0,0.2c0,0.1-0.1,0.1-0.1,0.2c0,0.1-0.1,0.1-0.1,0.2l-2.5,3.5h2.7c0.1,0,0.1,0,0.1,0.1
				C122.2,44.9,122.2,45,122.2,45.2z"/>
			<path class="st0" d="M127.2,45.2c0,0.1,0,0.2,0,0.2c0,0.1,0,0.1,0,0.1c0,0,0,0.1-0.1,0.1c0,0-0.1,0-0.1,0h-3.9
				c-0.1,0-0.2,0-0.3-0.1c-0.1-0.1-0.1-0.2-0.1-0.3V45c0-0.1,0-0.1,0-0.2c0,0,0-0.1,0-0.1c0-0.1,0-0.1,0.1-0.2
				c0-0.1,0.1-0.1,0.1-0.2l2.5-3.6H123c0,0-0.1,0-0.1,0c0,0-0.1,0-0.1-0.1c0,0,0-0.1,0-0.1c0-0.1,0-0.1,0-0.2c0-0.1,0-0.2,0-0.2
				c0-0.1,0-0.1,0-0.1c0,0,0-0.1,0.1-0.1c0,0,0.1,0,0.1,0h3.6c0.1,0,0.2,0,0.3,0.1c0.1,0.1,0.1,0.1,0.1,0.3v0.2c0,0.1,0,0.1,0,0.2
				c0,0.1,0,0.1,0,0.2c0,0.1-0.1,0.1-0.1,0.2c0,0.1-0.1,0.1-0.1,0.2l-2.5,3.5h2.7c0.1,0,0.1,0,0.1,0.1
				C127.2,44.9,127.2,45,127.2,45.2z"/>
			<path class="st0" d="M137.3,44.8c0,0.1,0,0.1,0,0.2c0,0.1,0,0.1,0,0.1c0,0,0,0.1,0,0.1c0,0,0,0.1-0.1,0.1c0,0-0.1,0.1-0.2,0.1
				c-0.1,0.1-0.2,0.1-0.4,0.2c-0.2,0-0.3,0.1-0.5,0.1c-0.2,0-0.4,0-0.6,0c-0.4,0-0.9-0.1-1.2-0.2c-0.4-0.1-0.7-0.3-0.9-0.5
				c-0.3-0.2-0.4-0.5-0.6-0.9c-0.1-0.4-0.2-0.8-0.2-1.3c0-0.5,0.1-0.9,0.2-1.3c0.1-0.4,0.4-0.7,0.6-1c0.3-0.3,0.6-0.5,1-0.6
				c0.4-0.1,0.8-0.2,1.2-0.2c0.2,0,0.4,0,0.5,0c0.2,0,0.3,0.1,0.5,0.1c0.1,0,0.3,0.1,0.4,0.1c0.1,0.1,0.2,0.1,0.2,0.1
				c0,0,0.1,0.1,0.1,0.1c0,0,0,0.1,0,0.1c0,0,0,0.1,0,0.1c0,0.1,0,0.1,0,0.2c0,0.1,0,0.2,0,0.2c0,0.1,0,0.1,0,0.2c0,0,0,0.1-0.1,0.1
				c0,0-0.1,0-0.1,0c-0.1,0-0.1,0-0.2-0.1c-0.1-0.1-0.2-0.1-0.3-0.2c-0.1-0.1-0.3-0.1-0.4-0.2c-0.2-0.1-0.4-0.1-0.6-0.1
				c-0.3,0-0.5,0-0.7,0.1c-0.2,0.1-0.4,0.2-0.5,0.4c-0.1,0.2-0.3,0.4-0.3,0.6c-0.1,0.2-0.1,0.5-0.1,0.8c0,0.3,0,0.6,0.1,0.9
				c0.1,0.2,0.2,0.5,0.3,0.6c0.1,0.2,0.3,0.3,0.5,0.4c0.2,0.1,0.4,0.1,0.7,0.1c0.2,0,0.4,0,0.6-0.1c0.2,0,0.3-0.1,0.4-0.2
				c0.1-0.1,0.2-0.1,0.3-0.2c0.1,0,0.1-0.1,0.2-0.1c0,0,0.1,0,0.1,0c0,0,0,0,0.1,0.1c0,0,0,0.1,0,0.1
				C137.3,44.6,137.3,44.6,137.3,44.8z"/>
			<path class="st0" d="M144.1,42.7c0,0.5-0.1,0.9-0.2,1.3c-0.1,0.4-0.3,0.7-0.6,1c-0.3,0.3-0.6,0.5-1,0.6c-0.4,0.1-0.8,0.2-1.4,0.2
				c-0.5,0-1-0.1-1.3-0.2c-0.4-0.1-0.7-0.3-0.9-0.5c-0.3-0.2-0.4-0.5-0.6-0.9c-0.1-0.4-0.2-0.8-0.2-1.3c0-0.5,0.1-0.9,0.2-1.3
				c0.1-0.4,0.3-0.7,0.6-1c0.3-0.3,0.6-0.5,1-0.6c0.4-0.1,0.8-0.2,1.4-0.2c0.5,0,0.9,0.1,1.3,0.2c0.4,0.1,0.7,0.3,1,0.5
				c0.3,0.2,0.4,0.5,0.6,0.9C144,41.7,144.1,42.2,144.1,42.7z M142.7,42.7c0-0.3,0-0.6-0.1-0.8c-0.1-0.2-0.1-0.5-0.3-0.6
				c-0.1-0.2-0.3-0.3-0.5-0.4c-0.2-0.1-0.5-0.1-0.8-0.1c-0.3,0-0.6,0.1-0.8,0.2c-0.2,0.1-0.4,0.3-0.5,0.4c-0.1,0.2-0.2,0.4-0.3,0.6
				c-0.1,0.2-0.1,0.5-0.1,0.8c0,0.3,0,0.6,0.1,0.8c0.1,0.3,0.1,0.5,0.3,0.6c0.1,0.2,0.3,0.3,0.5,0.4c0.2,0.1,0.5,0.1,0.8,0.1
				s0.6-0.1,0.8-0.2c0.2-0.1,0.4-0.3,0.5-0.4c0.1-0.2,0.2-0.4,0.3-0.6C142.7,43.3,142.7,43,142.7,42.7z"/>
			<path class="st0" d="M150.6,45.2c0,0.1,0,0.1,0,0.2c0,0.1-0.1,0.1-0.1,0.1c0,0-0.1,0.1-0.2,0.1c-0.1,0-0.1,0-0.2,0h-0.6
				c-0.1,0-0.2,0-0.3,0c-0.1,0-0.2-0.1-0.2-0.1c-0.1-0.1-0.1-0.1-0.2-0.2c-0.1-0.1-0.1-0.2-0.2-0.4l-1.6-2.7
				c-0.1-0.2-0.2-0.3-0.3-0.5c-0.1-0.2-0.2-0.4-0.3-0.5h0c0,0.2,0,0.4,0,0.6c0,0.2,0,0.4,0,0.7v3c0,0,0,0.1,0,0.1c0,0-0.1,0-0.1,0.1
				c0,0-0.1,0-0.2,0c-0.1,0-0.2,0-0.3,0c-0.1,0-0.2,0-0.3,0c-0.1,0-0.1,0-0.2,0c0,0-0.1,0-0.1-0.1c0,0,0-0.1,0-0.1v-5.2
				c0-0.1,0-0.2,0.1-0.3c0.1-0.1,0.2-0.1,0.3-0.1h0.7c0.1,0,0.2,0,0.3,0c0.1,0,0.2,0.1,0.2,0.1c0.1,0,0.1,0.1,0.2,0.2
				c0.1,0.1,0.1,0.2,0.2,0.3l1.3,2.1c0.1,0.1,0.1,0.3,0.2,0.4c0.1,0.1,0.1,0.2,0.2,0.4c0.1,0.1,0.1,0.2,0.2,0.4
				c0.1,0.1,0.1,0.2,0.2,0.4h0c0-0.2,0-0.4,0-0.7c0-0.2,0-0.4,0-0.6V40c0,0,0-0.1,0-0.1c0,0,0.1,0,0.1-0.1c0,0,0.1,0,0.2,0
				c0.1,0,0.2,0,0.3,0c0.1,0,0.2,0,0.3,0c0.1,0,0.1,0,0.2,0c0,0,0.1,0,0.1,0.1c0,0,0,0.1,0,0.1V45.2z"/>
			<path class="st0" d="M155.9,43.9c0,0.3-0.1,0.6-0.2,0.8c-0.1,0.2-0.3,0.4-0.5,0.6c-0.2,0.2-0.5,0.3-0.8,0.3
				c-0.3,0.1-0.6,0.1-0.9,0.1c-0.2,0-0.4,0-0.6,0c-0.2,0-0.4-0.1-0.5-0.1c-0.1,0-0.3-0.1-0.4-0.1c-0.1-0.1-0.2-0.1-0.2-0.1
				c0,0-0.1-0.1-0.1-0.2c0-0.1,0-0.2,0-0.3c0-0.1,0-0.2,0-0.2c0-0.1,0-0.1,0-0.2c0,0,0-0.1,0.1-0.1c0,0,0.1,0,0.1,0
				c0,0,0.1,0,0.2,0.1c0.1,0,0.2,0.1,0.3,0.2c0.1,0.1,0.3,0.1,0.5,0.2c0.2,0,0.4,0.1,0.6,0.1c0.2,0,0.3,0,0.4-0.1
				c0.1,0,0.2-0.1,0.3-0.1c0.1-0.1,0.2-0.1,0.2-0.2c0-0.1,0.1-0.2,0.1-0.3c0-0.1,0-0.2-0.1-0.3s-0.2-0.2-0.3-0.3
				c-0.1-0.1-0.3-0.1-0.4-0.2c-0.2-0.1-0.3-0.1-0.5-0.2c-0.2-0.1-0.3-0.2-0.5-0.2c-0.2-0.1-0.3-0.2-0.4-0.3
				c-0.1-0.1-0.2-0.3-0.3-0.4c-0.1-0.2-0.1-0.4-0.1-0.6c0-0.3,0.1-0.5,0.2-0.7c0.1-0.2,0.3-0.4,0.5-0.5c0.2-0.1,0.4-0.2,0.7-0.3
				c0.3-0.1,0.6-0.1,0.9-0.1c0.2,0,0.3,0,0.5,0c0.2,0,0.3,0,0.4,0.1c0.1,0,0.3,0.1,0.4,0.1c0.1,0,0.2,0.1,0.2,0.1
				c0,0,0.1,0.1,0.1,0.1c0,0,0,0,0,0.1c0,0,0,0.1,0,0.1c0,0.1,0,0.1,0,0.2c0,0.1,0,0.2,0,0.2c0,0.1,0,0.1,0,0.1c0,0,0,0.1-0.1,0.1
				c0,0-0.1,0-0.1,0c0,0-0.1,0-0.2-0.1c-0.1,0-0.2-0.1-0.3-0.1c-0.1,0-0.3-0.1-0.4-0.1c-0.2,0-0.3-0.1-0.5-0.1c-0.1,0-0.3,0-0.4,0
				c-0.1,0-0.2,0.1-0.3,0.1c-0.1,0.1-0.1,0.1-0.2,0.2c0,0.1-0.1,0.2-0.1,0.2c0,0.1,0,0.2,0.1,0.3c0.1,0.1,0.2,0.2,0.3,0.3
				c0.1,0.1,0.3,0.1,0.5,0.2c0.2,0.1,0.3,0.1,0.5,0.2c0.2,0.1,0.3,0.2,0.5,0.2c0.2,0.1,0.3,0.2,0.5,0.3c0.1,0.1,0.2,0.3,0.3,0.4
				C155.9,43.5,155.9,43.7,155.9,43.9z"/>
			<path class="st0" d="M161.2,40.3c0,0.1,0,0.2,0,0.2c0,0.1,0,0.1,0,0.1c0,0,0,0.1-0.1,0.1c0,0-0.1,0-0.1,0h-1.6v4.7
				c0,0,0,0.1,0,0.1c0,0-0.1,0-0.1,0.1c-0.1,0-0.1,0-0.2,0c-0.1,0-0.2,0-0.3,0c-0.1,0-0.2,0-0.3,0c-0.1,0-0.2,0-0.2,0
				c-0.1,0-0.1,0-0.1-0.1c0,0,0,0,0-0.1v-4.7h-1.6c0,0-0.1,0-0.1,0c0,0,0,0-0.1-0.1c0,0,0-0.1,0-0.1c0-0.1,0-0.1,0-0.2
				c0-0.1,0-0.2,0-0.2c0-0.1,0-0.1,0-0.1c0,0,0-0.1,0.1-0.1c0,0,0.1,0,0.1,0h4.6c0,0,0.1,0,0.1,0c0,0,0,0,0.1,0.1c0,0,0,0.1,0,0.1
				C161.2,40.2,161.2,40.2,161.2,40.3z"/>
			<path class="st0" d="M166.8,45.5C166.8,45.5,166.8,45.5,166.8,45.5c0,0.1-0.1,0.1-0.1,0.1c-0.1,0-0.1,0-0.2,0c-0.1,0-0.2,0-0.4,0
				c-0.1,0-0.3,0-0.3,0c-0.1,0-0.2,0-0.2,0c0,0-0.1,0-0.1-0.1c0,0,0-0.1-0.1-0.1l-0.6-1.3c-0.1-0.1-0.1-0.3-0.2-0.4
				c-0.1-0.1-0.1-0.2-0.2-0.3c-0.1-0.1-0.2-0.1-0.3-0.2c-0.1,0-0.2-0.1-0.4-0.1h-0.4v2.2c0,0,0,0.1,0,0.1c0,0-0.1,0-0.1,0.1
				c-0.1,0-0.1,0-0.2,0c-0.1,0-0.2,0-0.3,0c-0.1,0-0.2,0-0.3,0c-0.1,0-0.2,0-0.2,0c-0.1,0-0.1,0-0.1-0.1c0,0,0,0,0-0.1v-5.2
				c0-0.1,0-0.2,0.1-0.3c0.1-0.1,0.2-0.1,0.3-0.1h1.7c0.2,0,0.3,0,0.4,0c0.1,0,0.2,0,0.3,0c0.3,0,0.5,0.1,0.7,0.2
				c0.2,0.1,0.4,0.2,0.5,0.3c0.1,0.1,0.3,0.3,0.3,0.5c0.1,0.2,0.1,0.4,0.1,0.6c0,0.2,0,0.4-0.1,0.5c-0.1,0.2-0.1,0.3-0.2,0.4
				c-0.1,0.1-0.2,0.2-0.4,0.3c-0.2,0.1-0.3,0.2-0.5,0.2c0.1,0,0.2,0.1,0.3,0.2c0.1,0.1,0.2,0.1,0.2,0.2c0.1,0.1,0.1,0.2,0.2,0.3
				c0.1,0.1,0.1,0.2,0.2,0.4l0.6,1.1c0.1,0.1,0.1,0.2,0.1,0.2C166.8,45.4,166.8,45.4,166.8,45.5z M165.1,41.6c0-0.2,0-0.4-0.1-0.5
				c-0.1-0.1-0.3-0.2-0.5-0.3c-0.1,0-0.1,0-0.2,0c-0.1,0-0.2,0-0.4,0h-0.6v1.6h0.7c0.2,0,0.4,0,0.5-0.1c0.1,0,0.3-0.1,0.4-0.2
				c0.1-0.1,0.2-0.2,0.2-0.3C165.1,41.8,165.1,41.7,165.1,41.6z"/>
			<path class="st0" d="M173.1,43.5c0,0.4-0.1,0.7-0.2,0.9c-0.1,0.3-0.3,0.5-0.5,0.7c-0.2,0.2-0.5,0.3-0.8,0.4
				c-0.3,0.1-0.7,0.2-1.2,0.2c-0.4,0-0.8,0-1.1-0.1c-0.3-0.1-0.6-0.2-0.8-0.4c-0.2-0.2-0.4-0.4-0.5-0.7c-0.1-0.3-0.2-0.6-0.2-1V40
				c0,0,0-0.1,0-0.1c0,0,0.1,0,0.1-0.1c0.1,0,0.1,0,0.2,0c0.1,0,0.2,0,0.3,0c0.1,0,0.2,0,0.3,0c0.1,0,0.2,0,0.2,0
				c0.1,0,0.1,0,0.1,0.1c0,0,0,0,0,0.1v3.4c0,0.2,0,0.4,0.1,0.6c0.1,0.2,0.2,0.3,0.3,0.4c0.1,0.1,0.3,0.2,0.4,0.2
				c0.2,0.1,0.4,0.1,0.6,0.1c0.2,0,0.4,0,0.6-0.1c0.2-0.1,0.3-0.1,0.4-0.2c0.1-0.1,0.2-0.2,0.3-0.4c0.1-0.2,0.1-0.3,0.1-0.5V40
				c0,0,0-0.1,0-0.1c0,0,0.1,0,0.1-0.1c0.1,0,0.1,0,0.2,0c0.1,0,0.2,0,0.3,0s0.2,0,0.3,0c0.1,0,0.1,0,0.2,0c0.1,0,0.1,0,0.1,0.1
				c0,0,0,0,0,0.1V43.5z"/>
			<path class="st0" d="M179.1,44.8c0,0.1,0,0.1,0,0.2c0,0.1,0,0.1,0,0.1c0,0,0,0.1,0,0.1c0,0,0,0.1-0.1,0.1c0,0-0.1,0.1-0.2,0.1
				c-0.1,0.1-0.2,0.1-0.4,0.2c-0.2,0-0.3,0.1-0.5,0.1c-0.2,0-0.4,0-0.6,0c-0.4,0-0.9-0.1-1.2-0.2c-0.4-0.1-0.7-0.3-0.9-0.5
				c-0.3-0.2-0.4-0.5-0.6-0.9c-0.1-0.4-0.2-0.8-0.2-1.3c0-0.5,0.1-0.9,0.2-1.3c0.1-0.4,0.4-0.7,0.6-1c0.3-0.3,0.6-0.5,1-0.6
				c0.4-0.1,0.8-0.2,1.2-0.2c0.2,0,0.4,0,0.5,0c0.2,0,0.3,0.1,0.5,0.1c0.1,0,0.3,0.1,0.4,0.1c0.1,0.1,0.2,0.1,0.2,0.1
				c0,0,0.1,0.1,0.1,0.1c0,0,0,0.1,0,0.1c0,0,0,0.1,0,0.1c0,0.1,0,0.1,0,0.2c0,0.1,0,0.2,0,0.2c0,0.1,0,0.1,0,0.2c0,0,0,0.1-0.1,0.1
				c0,0-0.1,0-0.1,0c-0.1,0-0.1,0-0.2-0.1c-0.1-0.1-0.2-0.1-0.3-0.2c-0.1-0.1-0.3-0.1-0.4-0.2c-0.2-0.1-0.4-0.1-0.6-0.1
				c-0.3,0-0.5,0-0.7,0.1c-0.2,0.1-0.4,0.2-0.5,0.4c-0.1,0.2-0.3,0.4-0.3,0.6c-0.1,0.2-0.1,0.5-0.1,0.8c0,0.3,0,0.6,0.1,0.9
				c0.1,0.2,0.2,0.5,0.3,0.6c0.1,0.2,0.3,0.3,0.5,0.4c0.2,0.1,0.4,0.1,0.7,0.1c0.2,0,0.4,0,0.6-0.1c0.2,0,0.3-0.1,0.4-0.2
				c0.1-0.1,0.2-0.1,0.3-0.2c0.1,0,0.1-0.1,0.2-0.1c0,0,0.1,0,0.1,0c0,0,0,0,0.1,0.1c0,0,0,0.1,0,0.1
				C179.1,44.6,179.1,44.6,179.1,44.8z"/>
			<path class="st0" d="M184.4,40.3c0,0.1,0,0.2,0,0.2c0,0.1,0,0.1,0,0.1c0,0,0,0.1-0.1,0.1c0,0-0.1,0-0.1,0h-1.6v4.7
				c0,0,0,0.1,0,0.1c0,0-0.1,0-0.1,0.1c-0.1,0-0.1,0-0.2,0c-0.1,0-0.2,0-0.3,0c-0.1,0-0.2,0-0.3,0c-0.1,0-0.2,0-0.2,0
				c-0.1,0-0.1,0-0.1-0.1c0,0,0,0,0-0.1v-4.7h-1.6c0,0-0.1,0-0.1,0c0,0,0,0-0.1-0.1c0,0,0-0.1,0-0.1c0-0.1,0-0.1,0-0.2
				c0-0.1,0-0.2,0-0.2c0-0.1,0-0.1,0-0.1c0,0,0-0.1,0.1-0.1c0,0,0.1,0,0.1,0h4.6c0,0,0.1,0,0.1,0c0,0,0,0,0.1,0.1c0,0,0,0.1,0,0.1
				C184.4,40.2,184.4,40.2,184.4,40.3z"/>
			<path class="st0" d="M186.5,45.5C186.5,45.5,186.5,45.5,186.5,45.5c-0.1,0.1-0.1,0.1-0.1,0.1c-0.1,0-0.1,0-0.2,0
				c-0.1,0-0.2,0-0.3,0c-0.1,0-0.2,0-0.3,0c-0.1,0-0.2,0-0.2,0c-0.1,0-0.1,0-0.1-0.1c0,0,0,0,0-0.1V40c0,0,0-0.1,0-0.1
				c0,0,0.1,0,0.1-0.1c0.1,0,0.1,0,0.2,0c0.1,0,0.2,0,0.3,0c0.1,0,0.2,0,0.3,0c0.1,0,0.2,0,0.2,0c0.1,0,0.1,0,0.1,0.1c0,0,0,0,0,0.1
				V45.5z"/>
			<path class="st0" d="M193.9,42.7c0,0.5-0.1,0.9-0.2,1.3c-0.1,0.4-0.3,0.7-0.6,1c-0.3,0.3-0.6,0.5-1,0.6c-0.4,0.1-0.8,0.2-1.4,0.2
				c-0.5,0-1-0.1-1.3-0.2c-0.4-0.1-0.7-0.3-0.9-0.5c-0.3-0.2-0.4-0.5-0.6-0.9c-0.1-0.4-0.2-0.8-0.2-1.3c0-0.5,0.1-0.9,0.2-1.3
				c0.1-0.4,0.3-0.7,0.6-1c0.3-0.3,0.6-0.5,1-0.6c0.4-0.1,0.8-0.2,1.4-0.2c0.5,0,0.9,0.1,1.3,0.2c0.4,0.1,0.7,0.3,1,0.5
				c0.3,0.2,0.4,0.5,0.6,0.9C193.8,41.7,193.9,42.2,193.9,42.7z M192.5,42.7c0-0.3,0-0.6-0.1-0.8c-0.1-0.2-0.1-0.5-0.3-0.6
				c-0.1-0.2-0.3-0.3-0.5-0.4c-0.2-0.1-0.5-0.1-0.8-0.1c-0.3,0-0.6,0.1-0.8,0.2c-0.2,0.1-0.4,0.3-0.5,0.4c-0.1,0.2-0.2,0.4-0.3,0.6
				c-0.1,0.2-0.1,0.5-0.1,0.8c0,0.3,0,0.6,0.1,0.8c0.1,0.3,0.1,0.5,0.3,0.6c0.1,0.2,0.3,0.3,0.5,0.4c0.2,0.1,0.5,0.1,0.8,0.1
				c0.3,0,0.6-0.1,0.8-0.2c0.2-0.1,0.4-0.3,0.5-0.4c0.1-0.2,0.2-0.4,0.3-0.6C192.4,43.3,192.5,43,192.5,42.7z"/>
			<path class="st0" d="M200.4,45.2c0,0.1,0,0.1,0,0.2c0,0.1-0.1,0.1-0.1,0.1c0,0-0.1,0.1-0.2,0.1c-0.1,0-0.1,0-0.2,0h-0.6
				c-0.1,0-0.2,0-0.3,0c-0.1,0-0.2-0.1-0.2-0.1c-0.1-0.1-0.1-0.1-0.2-0.2c-0.1-0.1-0.1-0.2-0.2-0.4l-1.6-2.7
				c-0.1-0.2-0.2-0.3-0.3-0.5c-0.1-0.2-0.2-0.4-0.3-0.5h0c0,0.2,0,0.4,0,0.6c0,0.2,0,0.4,0,0.7v3c0,0,0,0.1,0,0.1c0,0-0.1,0-0.1,0.1
				c0,0-0.1,0-0.2,0c-0.1,0-0.2,0-0.3,0c-0.1,0-0.2,0-0.3,0c-0.1,0-0.1,0-0.2,0c0,0-0.1,0-0.1-0.1c0,0,0-0.1,0-0.1v-5.2
				c0-0.1,0-0.2,0.1-0.3c0.1-0.1,0.2-0.1,0.3-0.1h0.7c0.1,0,0.2,0,0.3,0c0.1,0,0.2,0.1,0.2,0.1c0.1,0,0.1,0.1,0.2,0.2
				c0.1,0.1,0.1,0.2,0.2,0.3l1.3,2.1c0.1,0.1,0.1,0.3,0.2,0.4c0.1,0.1,0.1,0.2,0.2,0.4c0.1,0.1,0.1,0.2,0.2,0.4
				c0.1,0.1,0.1,0.2,0.2,0.4h0c0-0.2,0-0.4,0-0.7c0-0.2,0-0.4,0-0.6V40c0,0,0-0.1,0-0.1c0,0,0.1,0,0.1-0.1c0,0,0.1,0,0.2,0
				c0.1,0,0.2,0,0.3,0c0.1,0,0.2,0,0.3,0c0.1,0,0.1,0,0.2,0c0,0,0.1,0,0.1,0.1c0,0,0,0.1,0,0.1V45.2z"/>
		</g>
	</g>
	<g>
		<path class="st0" d="M4.1,28.2C1.7,23.6,0.4,17.6,0.3,18c-0.2,1.6-2.4,14,8.6,23c6.9,5.6,13.9,6.9,20.1,6.2
			c10-1.1,15.3-6.1,17.3-10.6c3.6-8.2-0.4-14.6-2.8-16.9C38.9,15.2,32.9,15,32.2,18c-1,4.2,7.8,7,7.7,12.8
			c-0.1,5.8-5.6,10.2-14.2,10.2C17.7,40.9,9.6,38.6,4.1,28.2z"/>
		<path class="st0" d="M58.4,20.7c2.4,4.6,3.8,10.7,3.8,10.3c0.2-1.6,2.4-14-8.6-23C46.8,2.3,39.7,1,33.6,1.7
			c-10,1.1-15.3,6.1-17.3,10.6c-3.6,8.2,0.4,14.6,2.8,16.9c4.7,4.5,10.6,4.7,11.3,1.7c1-4.2-7.8-7-7.7-12.8C22.7,12.3,28.2,8,36.8,8
			C44.9,8,53,10.3,58.4,20.7z"/>
	</g>
</g>
</svg>
